…
It looks like I signed up for Goodreads in 2012 and started adding books to my list of read books. If I couldn't remember when I read the book, I left the date read field blank. My wife started in 2009 and had a similar pattern of behavior. After this initial flurry of adding books, I recorded little activity on the website until about 2014-2015 when I started using Goodreads in earnest. This graph doesn't really represent my reading history since there's a lot of missing data, but it does represent pretty well how I've used this website.

## Most popular author

I wondered which author we had read the most of. This is subject to recall bias, but it seems that for me #1 is Haruki Murakami, whose work I just love. Then came two comic artists (Gene Luen Yang and Sara Varon). Finally there were a whole bunch of 3-timers including Hugh Howey (Wool series), John Elder Robison (autistic writer), Stieg Larsson (The Girl Who... series) Suzanne Collins (Hunger Games series). 


```r
books %>% filter(reader == "me") %>% 
  group_by(Author) %>% summarize(n = length(Author)) %>% arrange(desc(n))
```

```
## # A tibble: 124 x 2
##                    Author     n
##                    <fctr> <int>
##  1        Haruki Murakami    10
##  2         Gene Luen Yang     6
##  3             Sara Varon     4
##  4             Hugh Howey     3
##  5     John Elder Robison     3
##  6         Randall Munroe     3
##  7          Stieg Larsson     3
##  8        Suzanne Collins     3
##  9          Veronica Roth     3
## 10 America's Test Kitchen     2
## # ... with 114 more rows
```

For my wife, it's the romance novels that predominate.


```r
books %>% filter(reader == "wife") %>% 
  group_by(Author) %>% summarize(n = length(Author)) %>% arrange(desc(n))
```

```
## # A tibble: 157 x 2
##                    Author     n
##                    <fctr> <int>
##  1            Bella Andre    18
##  2              Meg Cabot    12
##  3         Daisy Prescott    11
##  4             Penny Reid    11
##  5        Tasha Alexander     9
##  6           J.K. Rowling     8
##  7         Kristin Hannah     7
##  8          Michael Scott     6
##  9            Violet Duke     6
## 10 Alexander McCall Smith     5
## # ... with 147 more rows
```
…
Here are the top 10 books that we liked more than the community.

```r
books %>% select(Title, Author, My.Rating, Average.Rating) %>% mutate(dRating = My.Rating - Average.Rating) %>% 
  filter(!is.na(dRating)) %>% arrange(desc(dRating))
```

```
## # A tibble: 440 x 5
##                                                                          Title
##                                                                          <chr>
##  1                       FOUND IT! Introducing Geocaching to Kids and Families
##  2                                                     A Hologram for the King
##  3                                                     Twilight (Twilight, #1)
##  4                                  The Meanings of Craft Beer (Kindle Single)
##  5      The Fortune Cookie Chronicles: Adventures in the World of Chinese Food
##  6 Three Cups of Tea: One Man's Mission to Promote Peace ... One School at a T
##  7                                                      The Fantastic Mr. Wani
##  8                                                                  After Dark
##  9                                               After You (Me Before You, #2)
## 10                                                Breaking Dawn (Twilight, #4)
## # ... with 430 more rows, and 4 more variables: Author <fctr>,
## #   My.Rating <dbl>, Average.Rating <dbl>, dRating <dbl>
```

And the ones we liked worse than the community.

```r
books %>% select(Title, Author, My.Rating, Average.Rating) %>% mutate(dRating = My.Rating - Average.Rating) %>% 
  filter(!is.na(dRating)) %>% arrange(dRating)
```

```
## # A tibble: 440 x 5
##                                                                          Title
##                                                                          <chr>
##  1                                           Under Pressure: Cooking Sous Vide
##  2                          A Wind in the Door (A Wrinkle in Time Quintet, #2)
##  3                          Be Different: Adventures of a Free-Range Aspergian
##  4                                       Angels & Demons  (Robert Langdon, #1)
##  5                                            Every Day is an Atheist Holiday!
##  6                                                          Last Chance Saloon
##  7                                                     Grey (Fifty Shades, #4)
##  8                      The Orchid Thief: A True Story of Beauty and Obsession
##  9                                                        The Mermaid's Sister
## 10 Apps for Autism: An Essential Guide to Over 200 Effective Apps for Improvin
## # ... with 430 more rows, and 4 more variables: Author <fctr>,
## #   My.Rating <dbl>, Average.Rating <dbl>, dRating <dbl>
```
…
